module gitlab.com/josetanta/blog-api

go 1.17

require (
	github.com/dgrijalva/jwt-go v3.2.0+incompatible
	github.com/go-playground/validator/v10 v10.10.0
	github.com/gofiber/fiber/v2 v2.28.0
	github.com/joho/godotenv v1.4.0
	github.com/markbates/goth v1.69.0
	github.com/nfnt/resize v0.0.0-20180221191011-83c6a9932646
	github.com/shareed2k/goth_fiber v0.2.5
	golang.org/x/crypto v0.0.0-20220214200702-86341886e292
	gorm.io/driver/postgres v1.3.1
	gorm.io/driver/sqlite v1.3.1
	gorm.io/gorm v1.23.2
)

require (
	cloud.google.com/go v0.67.0 // indirect
	github.com/andybalholm/brotli v1.0.4 // indirect
	github.com/go-playground/locales v0.14.0 // indirect
	github.com/go-playground/universal-translator v0.18.0 // indirect
	github.com/golang/protobuf v1.5.2 // indirect
	github.com/gorilla/context v1.1.1 // indirect
	github.com/gorilla/mux v1.8.0 // indirect
	github.com/gorilla/securecookie v1.1.1 // indirect
	github.com/gorilla/sessions v1.1.1 // indirect
	github.com/jackc/chunkreader/v2 v2.0.1 // indirect
	github.com/jackc/pgconn v1.10.1 // indirect
	github.com/jackc/pgio v1.0.0 // indirect
	github.com/jackc/pgpassfile v1.0.0 // indirect
	github.com/jackc/pgproto3/v2 v2.2.0 // indirect
	github.com/jackc/pgservicefile v0.0.0-20200714003250-2b9c44734f2b // indirect
	github.com/jackc/pgtype v1.9.1 // indirect
	github.com/jackc/pgx/v4 v4.14.1 // indirect
	github.com/jinzhu/inflection v1.0.0 // indirect
	github.com/jinzhu/now v1.1.4 // indirect
	github.com/klauspost/compress v1.14.1 // indirect
	github.com/leodido/go-urn v1.2.1 // indirect
	github.com/mattn/go-sqlite3 v1.14.9 // indirect
	github.com/valyala/bytebufferpool v1.0.0 // indirect
	github.com/valyala/fasthttp v1.33.0 // indirect
	github.com/valyala/tcplisten v1.0.0 // indirect
	golang.org/x/net v0.0.0-20220111093109-d55c255bac03 // indirect
	golang.org/x/oauth2 v0.0.0-20210628180205-a41e5a781914 // indirect
	golang.org/x/sys v0.0.0-20220111092808-5a964db01320 // indirect
	golang.org/x/text v0.3.7 // indirect
	google.golang.org/appengine v1.6.7 // indirect
	google.golang.org/protobuf v1.26.0 // indirect
)
